digraph {
  rankdir=LR
  node [shape=plaintext] 
  label = "Legend";
  labelloc=top;
  labeljust=center;
  key1 [label=<<table border="0" cellpadding="2" cellspacing="0" cellborder="0">
    <tr><td port="i1">&nbsp;</td></tr>
    <tr><td port="i2">&nbsp;</td></tr>
    <tr><td port="i3">&nbsp;</td></tr>
    <tr><td port="i4">&nbsp;</td></tr>
    </table>>]
  key2 [label=<<table border="0" cellpadding="2" cellspacing="0" cellborder="0">
      <tr><td align="left" port="i1">evalo</td></tr>
      <tr><td align="left" port="i2">succeeded branch</td></tr>
      <tr><td align="left" port="i3">failed branch</td></tr>
      <tr><td align="left" port="i4">suspended branch</td></tr>
      </table>>]
  key1:i1:e -> key2:i1:w 
  key1:i2:e -> key2:i2:w [color=darkgreen]
  key1:i3:e -> key2:i3:w [color=red3]
  key1:i4:e -> key2:i4:w [color=gold]
}